<svg xmlns="http://www.w3.org/2000/svg" viewBox="0 0 24 20">
    <path d="M24 0H3a3 3 0 0 0-3 3v17l8-4h13a3 3 0 0 0 3-3V0zm-2 2v11a1 1 0 0 1-1 1H7.527l-.422.211L2 16.764V3a1 1 0 0 1 1-1h19zm-4 5H6V5h10a2 2 0 0 1 2 2m-5 4H6V9h5a2 2 0 0 1 2 2"/>
</svg>
