<?xml version="1.0" encoding="utf-8"?>
<!-- Generator: Adobe Illustrator 19.0.0, SVG Export Plug-In . SVG Version: 6.00 Build 0)  -->
<svg version="1.1" id="Слой_1" xmlns="http://www.w3.org/2000/svg" xmlns:xlink="http://www.w3.org/1999/xlink" x="0px" y="0px"
	 viewBox="-256 377 39.1 31.8" style="enable-background:new -256 377 39.1 31.8;" xml:space="preserve">
<style type="text/css">
	.st0{fill:#FFFFFF;}
</style>
<path class="st0" d="M-225.3,401.9c4.6-0.1,8.4-3.8,8.4-8.5c0-4.7-3.8-8.5-8.5-8.5c0,0,0,0,0,0c-0.2,0-0.5,0-0.8,0
	c-1.8-4.8-6.4-7.9-11.6-7.9c-5.3,0-9.9,3.4-11.6,8.1c-3.9,0.9-6.6,4.3-6.6,8.3c0,4.7,3.8,8.5,8.5,8.5c0,0,0,0,0,0H-225.3z
	 M-247.5,400.7c-4,0-7.3-3.3-7.3-7.3c0-3.2,2-6,5-6.9c-0.2,1-0.4,2-0.4,3c0,5,2.9,9.3,7.1,11.3H-247.5z M-237.7,400.7
	c-6.2,0-11.3-5.1-11.3-11.3s5.1-11.3,11.3-11.3c1.7,0,3.4,0.4,4.9,1.1v21.4H-237.7z M-227.1,385.8c0.4,1.2,0.6,2.4,0.6,3.7v11.3
	h-5.1V380C-229.5,381.4-227.9,383.4-227.1,385.8z M-225.3,400.7v-11.3c0-1.1-0.2-2.3-0.5-3.4h0.4c4,0,7.3,3.3,7.3,7.3
	C-218.1,397.4-221.3,400.6-225.3,400.7z M-255.4,407.6h37.9v1.2h-37.9V407.6z"/>
</svg>
