{
	"custom": [
		{
			"title": "Аутсорсинг",
			"route": {
				"name": "page",
				"params": {
					"page": "outsourcing"
				},
				"path": "/outsourcing"
			}
		},
		{
			"title": "Skyfall Group",
			"route": {
				"name": "page",
				"params": {
					"page": "skyfall-group"
				},
				"path": "/skyfall-group"
			}
		},
		{
			"title": "Skyfall",
			"route": {
				"name": "page",
				"params": {
					"page": "skyfall"
				},
				"path": "/skyfall"
			}
		},
		{
			"title": "Clouds",
			"route": {
				"name": "page",
				"params": {
					"page": "clouds"
				},
				"path": "/clouds"
			}
		}
	]
}