{
	"status": 200,
	"response": {
		"project": [
			{
				"type": "project",
				"meta": {
					"title": "Skyfall Group",
					"description": "Подробнее о нашей группе проектов, партнёрах и программе лояльности",
					"image": "https://image.ibb.co/kZy7d8/skyfall_group.jpg",
					"iconLight": "https://vk.com/doc383964643_466942758?hash=27cc8e3f55765a06b1&dl=f855f9e6bf3c22f0b3",
					"iconDark": "https://vk.com/doc383964643_466942759?hash=06be9b3c8373ae542a&dl=372d89a1fa95b0ede2",
					"link": {
						"name": "project",
						"params": {
							"name": "skyfall"
						}
					}
				}
			}
		],
		"position": [
			{
				"type": "position",
				"meta": {
					"title": "Ассортимент High Tea",
					"icon": "https://pp.userapi.com/c824500/v824500307/127bc5/aS3Af1-sZTo.jpg",
					"description": "Смотреть чай на странице проекта",
					"link": {
						"name": "position",
						"params": {
							"name": "high-tea"
						}
					}
				}
			},
			{
				"type": "position",
				"meta": {
					"title": "Меню кальян-бара Skyfall",
					"icon": "https://pp.userapi.com/c824500/v824500307/127bc5/aS3Af1-sZTo.jpg",
					"description": "Смотреть чай на странице проекта",
					"link": {
						"name": "position",
						"params": {
							"name": "skyfall"
						}
					}
				}
			},
			{
				"type": "position",
				"meta": {
					"title": "Меню гастро-бара Clouds",
					"icon": "https://pp.userapi.com/c824500/v824500307/127bc5/aS3Af1-sZTo.jpg",
					"description": "Смотреть чай на странице проекта",
					"link": {
						"name": "position",
						"params": {
							"name": "clouds"
						}
					}
				}
			}
		],
		"teammate": [
			{
				"type": "teammate",
				"meta": {
					"name": "Ангелина Светлаковская",
					"photo": "https://pp.userapi.com/c824500/v824500307/127bc5/aS3Af1-sZTo.jpg",
					"description": "Чайный гуру из кальян-бара Skyfall",
					"link": {
						"name": "teammate",
						"params": {
							"name": "angelina-svetlakovskaya"
						}
					}
				}
			},
			{
				"type": "teammate",
				"meta": {
					"name": "Константин Лийст",
					"photo": "https://pp.userapi.com/c824500/v824500307/127bc5/aS3Af1-sZTo.jpg",
					"description": "Божество чайное из гастро-бара Clouds",
					"link": {
						"name": "teammate",
						"params": {
							"name": "konstantin-liyst"
						}
					}
				}
			}
		],
		"info": [
			{
				"type": "info",
				"meta": {
					"iconDarkBg": "https://image.ibb.co/cnOsQo/skyfall_mark_copy.png",
					"iconLightBg": "https://image.ibb.co/eYOKqo/skyfall_mark_copy.png",
					"title": "Кальян-бар Skyfall",
					"address": "Лиговский проспект, 39/1",
					"phone": "+7 (981) 939-00-39",
					"workTime": "Воскресенье – четверг: с 14:00 до 0:00\nПятница, суббота: с 14:00 до 04:00",
					"link": {
						"name": "info",
						"params": {
							"name": "skyfall"
						}
					}
				}
			}
		],
		"post": [
			{
				"type": "post",
				"meta": {
					"title": "Представляем новое меню авторских кальянов Skyfall",
					"description": "Впервые с момента открытия, команда Skyfall решилась переработать кальянное меню: упростили выбор классических кальянов и представили новую коллекцию авторских",
					"group": "Skyfall Group",
					"date": 1526688000,
					"thumbnail": "https://image.ibb.co/kZy7d8/skyfall_group.jpg",
					"link": {
						"name": "post",
						"params": {
							"alias": "some-alias-1"
						}
					}
				}
			},
			{
				"type": "post",
				"meta": {
					"title": "Как мы разрабатывали новую систему сочетания чая и кальяна",
					"description": "За неделю команда Skyfall продегустировала более 50 сортов чая, чтобы понять какие из них удачно сочетаются с каждой из категорий вкуса кальяна.",
					"group": "Skyfall Group",
					"date": 1526688000,
					"thumbnail": "https://image.ibb.co/kZy7d8/skyfall_group.jpg",
					"link": {
						"name": "post",
						"params": {
							"alias": "some-alias-2"
						}
					}
				}
			},
			{
				"type": "post",
				"meta": {
					"title": "Как связаны Адель, агент 007 и кальяны?",
					"description": "Курил ли у нас Бонд и что за слова в нашем туалете — наконец отвечаем почему мы выбрали именно это название для нашего первого заведения.",
					"group": "Skyfall Group",
					"date": 1526688000,
					"thumbnail": "https://image.ibb.co/kZy7d8/skyfall_group.jpg",
					"link": {
						"name": "post",
						"params": {
							"alias": "some-alias-3"
						}
					}
				}
			}
		]
	}
}